[gd_scene load_steps=6 format=2]

[ext_resource path="res://Recursos/asset-pixel/Terrain/Terrain (16x16).png" type="Texture" id=1]

[sub_resource type="RectangleShape2D" id=1]
extents = Vector2( 23.8969, 2.5612 )

[sub_resource type="AtlasTexture" id=2]
atlas = ExtResource( 1 )
region = Rect2( 266.65, -0.44, 56.49, 7 )

[sub_resource type="RectangleShape2D" id=3]
extents = Vector2( 0.539129, 2.03153 )

[sub_resource type="RectangleShape2D" id=4]
extents = Vector2( 0.561068, 2.03153 )

[node name="Platform" type="StaticBody2D"]

[node name="CollisionShape2D" type="CollisionShape2D" parent="."]
rotation = 5.07036e-006
shape = SubResource( 1 )
one_way_collision = true

[node name="Sprite2" type="Sprite" parent="."]
modulate = Color( 0.564706, 0.0392157, 0.0392157, 1 )
position = Vector2( -1.66241, 2.67484 )
texture = SubResource( 2 )
region_rect = Rect2( 269, -7, 53, 16 )

[node name="Sprite" type="Sprite" parent="."]
position = Vector2( -1.82849, 0.469681 )
scale = Vector2( 1.04, 1 )
texture = SubResource( 2 )
region_rect = Rect2( 269, -7, 53, 16 )

[node name="CollisionShape2D2" type="CollisionShape2D" parent="."]
position = Vector2( -23.8919, 0 )
shape = SubResource( 3 )

[node name="CollisionShape2D3" type="CollisionShape2D" parent="."]
position = Vector2( 23.1299, 0 )
shape = SubResource( 4 )
