[gd_scene load_steps=9 format=2]

[ext_resource path="res://niveles/nivel.gd" type="Script" id=1]
[ext_resource path="res://niveles/fondos/Background_azul.tscn" type="PackedScene" id=2]
[ext_resource path="res://niveles/objetos/platform.tscn" type="PackedScene" id=3]
[ext_resource path="res://niveles/tilesets/pix2.tres" type="TileSet" id=4]
[ext_resource path="res://personajes/personaje.tscn" type="PackedScene" id=5]
[ext_resource path="res://niveles/objetos/frutas.gd" type="Script" id=6]
[ext_resource path="res://niveles/HUD/HUD.tscn" type="PackedScene" id=7]
[ext_resource path="res://niveles/sonidos/Kubbi  Up In My Jam (All Of A Sudden)(completo).wav" type="AudioStream" id=8]

[node name="nivel" type="Node2D"]
script = ExtResource( 1 )

[node name="Background" parent="." instance=ExtResource( 2 )]

[node name="Plataformas" type="Node2D" parent="."]
editor/display_folded = true

[node name="Plat-1" parent="Plataformas" instance=ExtResource( 3 )]
position = Vector2( 111.618, 226.991 )

[node name="Plat-15" parent="Plataformas" instance=ExtResource( 3 )]
position = Vector2( 544.764, 275.125 )

[node name="Plat-18" parent="Plataformas" instance=ExtResource( 3 )]
position = Vector2( 616.622, 200.542 )

[node name="Plat-16" parent="Plataformas" instance=ExtResource( 3 )]
position = Vector2( 543.907, 349.892 )

[node name="Plat-17" parent="Plataformas" instance=ExtResource( 3 )]
position = Vector2( 543.907, 349.892 )

[node name="Plat-2" parent="Plataformas" instance=ExtResource( 3 )]
position = Vector2( 111.873, 298.456 )

[node name="Plat-3" parent="Plataformas" instance=ExtResource( 3 )]
position = Vector2( 168.915, 323.111 )
rotation = 2.09439

[node name="Plat-9" parent="Plataformas" instance=ExtResource( 3 )]
position = Vector2( 218.707, 322.803 )
rotation = 5.23598

[node name="Plat-11" parent="Plataformas" instance=ExtResource( 3 )]
position = Vector2( 118.815, 323.726 )
rotation = 5.23598

[node name="Plat-8" parent="Plataformas" instance=ExtResource( 3 )]
position = Vector2( 144.326, 322.803 )
rotation = 1.0472

[node name="Plat-4" parent="Plataformas" instance=ExtResource( 3 )]
position = Vector2( 168.915, 365.765 )
rotation = -2.09439

[node name="Plat-10" parent="Plataformas" instance=ExtResource( 3 )]
position = Vector2( 218.707, 365.765 )
rotation = -5.22606

[node name="Plat-12" parent="Plataformas" instance=ExtResource( 3 )]
position = Vector2( 118.815, 366.38 )
rotation = 1.0472

[node name="Plat-7" parent="Plataformas" instance=ExtResource( 3 )]
position = Vector2( 143.711, 365.15 )
rotation = -1.0472

[node name="Plat-6" parent="Plataformas" instance=ExtResource( 3 )]
position = Vector2( 193.547, 365.457 )
rotation = 2.09439

[node name="Plat-13" parent="Plataformas" instance=ExtResource( 3 )]
position = Vector2( 93.6558, 366.072 )
rotation = 2.09439

[node name="Plat-5" parent="Plataformas" instance=ExtResource( 3 )]
position = Vector2( 193.547, 322.803 )
rotation = -2.09439

[node name="Plat-14" parent="Plataformas" instance=ExtResource( 3 )]
position = Vector2( 93.6558, 323.418 )
rotation = -2.09439

[node name="TileMap" type="TileMap" parent="."]
tile_set = ExtResource( 4 )
cell_size = Vector2( 16, 16 )
cell_quadrant_size = 8
format = 1
tile_data = PoolIntArray( -393206, 1, 0, -393205, 1, 1, -393204, 1, 1, -393203, 1, 1, -393202, 1, 1, -393201, 1, 2, -262150, 1, 0, -262149, 1, 1, -262148, 1, 1, -262147, 1, 1, -262146, 1, 1, -262145, 1, 1, -327680, 1, 1, -327679, 1, 1, -327678, 1, 1, -327677, 1, 1, -327676, 1, 1, -327675, 1, 1, -327674, 1, 1, -327673, 1, 1, -327672, 1, 1, -327671, 1, 1, -327670, 1, 65540, -327669, 1, 65537, -327668, 1, 65537, -327667, 1, 65537, -327666, 1, 65537, -327665, 1, 65539, -327664, 1, 1, -327663, 1, 1, -327662, 1, 1, -327661, 1, 1, -327660, 1, 1, -327659, 1, 1, -327658, 1, 1, -327657, 1, 1, -327656, 1, 1, -327655, 1, 1, -327654, 1, 1, -327653, 1, 1, -327652, 1, 1, -327651, 1, 1, -327650, 1, 1, -327649, 1, 1, -327648, 1, 1, -327647, 1, 1, -327646, 1, 1, -327645, 1, 1, -327644, 1, 1, -327643, 1, 1, -327642, 1, 1, -327641, 1, 1, -327640, 1, 1, -327639, 1, 1, -327638, 1, 1, -327637, 1, 1, -327636, 1, 1, -327635, 1, 1, -327634, 1, 1, -327633, 1, 1, -327632, 1, 1, -327631, 1, 1, -327630, 1, 2, -196614, 1, 65536, -196613, 1, 65537, -196612, 1, 65537, -196611, 1, 65537, -196610, 1, 65537, -196609, 1, 65537, -262144, 1, 65537, -262143, 1, 65537, -262142, 1, 65537, -262141, 1, 65537, -262140, 1, 65537, -262139, 1, 65537, -262138, 1, 65537, -262137, 1, 65537, -262136, 1, 65537, -262135, 1, 65537, -262134, 1, 65537, -262133, 1, 65537, -262132, 1, 65537, -262131, 1, 65537, -262130, 1, 65537, -262129, 1, 65537, -262128, 1, 65537, -262127, 1, 65537, -262126, 1, 65537, -262125, 1, 65537, -262124, 1, 65537, -262123, 1, 65537, -262122, 1, 65537, -262121, 1, 65537, -262120, 1, 65537, -262119, 1, 65537, -262118, 1, 65537, -262117, 1, 65537, -262116, 1, 65537, -262115, 1, 65537, -262114, 1, 65537, -262113, 1, 65537, -262112, 1, 65537, -262111, 1, 65537, -262110, 1, 65537, -262109, 1, 65537, -262108, 1, 65537, -262107, 1, 65537, -262106, 1, 65537, -262105, 1, 65537, -262104, 1, 65537, -262103, 1, 65537, -262102, 1, 65537, -262101, 1, 65537, -262100, 1, 65537, -262099, 1, 65537, -262098, 1, 65537, -262097, 1, 65537, -262096, 1, 65537, -262095, 1, 65537, -262094, 1, 65538, -131078, 1, 65536, -131077, 1, 65537, -131076, 1, 65537, -131075, 1, 65537, -131074, 1, 65537, -131073, 1, 65537, -196608, 1, 65537, -196607, 1, 65537, -196606, 1, 65537, -196605, 1, 65537, -196604, 1, 65537, -196603, 1, 65537, -196602, 1, 65537, -196601, 1, 65537, -196600, 1, 65537, -196599, 1, 65537, -196598, 1, 65537, -196597, 1, 65537, -196596, 1, 65537, -196595, 1, 65537, -196594, 1, 65537, -196593, 1, 65537, -196592, 1, 65537, -196591, 1, 65537, -196590, 1, 65537, -196589, 1, 65537, -196588, 1, 65537, -196587, 1, 65537, -196586, 1, 65537, -196585, 1, 65537, -196584, 1, 65537, -196583, 1, 65537, -196582, 1, 65537, -196581, 1, 65537, -196580, 1, 65537, -196579, 1, 65537, -196578, 1, 65537, -196577, 1, 65537, -196576, 1, 65537, -196575, 1, 65537, -196574, 1, 65537, -196573, 1, 65537, -196572, 1, 65537, -196571, 1, 65537, -196570, 1, 65537, -196569, 1, 65537, -196568, 1, 65537, -196567, 1, 65537, -196566, 1, 65537, -196565, 1, 65537, -196564, 1, 65537, -196563, 1, 65537, -196562, 1, 65537, -196561, 1, 65537, -196560, 1, 65537, -196559, 1, 65537, -196558, 1, 65538, -65542, 1, 65536, -65541, 1, 65537, -65540, 1, 65537, -65539, 1, 65537, -65538, 1, 65537, -65537, 1, 65537, -131072, 1, 65537, -131071, 1, 65537, -131070, 1, 65537, -131069, 1, 65537, -131068, 1, 65537, -131067, 1, 65537, -131066, 1, 65537, -131065, 1, 65537, -131064, 1, 65537, -131063, 1, 65537, -131062, 1, 65537, -131061, 1, 65537, -131060, 1, 65537, -131059, 1, 65537, -131058, 1, 65537, -131057, 1, 65537, -131056, 1, 65537, -131055, 1, 65537, -131054, 1, 65537, -131053, 1, 65537, -131052, 1, 65537, -131051, 1, 65537, -131050, 1, 65537, -131049, 1, 65537, -131048, 1, 65537, -131047, 1, 65537, -131046, 1, 65537, -131045, 1, 65537, -131044, 1, 3, -131043, 1, 131073, -131042, 1, 131073, -131041, 1, 131073, -131040, 1, 131073, -131039, 1, 131073, -131038, 1, 131073, -131037, 1, 131073, -131036, 1, 131073, -131035, 1, 131073, -131034, 1, 131073, -131033, 1, 131073, -131032, 1, 131073, -131031, 1, 131073, -131030, 1, 131073, -131029, 1, 131073, -131028, 1, 131073, -131027, 1, 131073, -131026, 1, 4, -131025, 1, 65537, -131024, 1, 65537, -131023, 1, 65537, -131022, 1, 65538, -6, 1, 65536, -5, 1, 65537, -4, 1, 65537, -3, 1, 65537, -2, 1, 65537, -1, 1, 65537, -65536, 1, 65537, -65535, 1, 65537, -65534, 1, 65537, -65533, 1, 65537, -65532, 1, 65537, -65531, 1, 65537, -65530, 1, 65537, -65529, 1, 65537, -65528, 1, 65537, -65527, 1, 65537, -65526, 1, 65537, -65525, 1, 65537, -65524, 1, 65537, -65523, 1, 65537, -65522, 1, 65537, -65521, 1, 65537, -65520, 1, 65537, -65519, 1, 65537, -65518, 1, 65537, -65517, 1, 65537, -65516, 1, 65537, -65515, 1, 65537, -65514, 1, 65537, -65513, 1, 65537, -65512, 1, 65537, -65511, 1, 65537, -65510, 1, 65537, -65509, 1, 65537, -65508, 1, 65538, -65507, 3, 0, -65506, 3, 1, -65505, 3, 1, -65504, 3, 1, -65503, 3, 1, -65502, 3, 1, -65501, 3, 1, -65500, 3, 1, -65499, 3, 1, -65498, 3, 1, -65497, 3, 1, -65496, 3, 1, -65495, 3, 1, -65494, 3, 1, -65493, 3, 1, -65492, 3, 1, -65491, 3, 2, -65490, 1, 65536, -65489, 1, 65537, -65488, 1, 65537, -65487, 1, 65537, -65486, 1, 65538, 65530, 1, 65536, 65531, 1, 65537, 65532, 1, 65537, 65533, 1, 65537, 65534, 1, 65537, 65535, 1, 65537, 0, 1, 3, 1, 1, 131073, 2, 1, 4, 3, 1, 65537, 4, 1, 65537, 5, 1, 65537, 6, 1, 65537, 7, 1, 65537, 8, 1, 65537, 9, 1, 65537, 10, 1, 65537, 11, 1, 65537, 12, 1, 65537, 13, 1, 65537, 14, 1, 65537, 15, 1, 65537, 16, 1, 65537, 17, 1, 65537, 18, 1, 65537, 19, 1, 65537, 20, 1, 65537, 21, 1, 65537, 22, 1, 65537, 23, 1, 65537, 24, 1, 65537, 25, 1, 65537, 26, 1, 65537, 27, 1, 65537, 28, 1, 65538, 29, 3, 131072, 30, 3, 131073, 31, 3, 4, 32, 3, 65537, 33, 3, 65537, 34, 3, 65537, 35, 3, 65537, 36, 3, 65537, 37, 3, 65537, 38, 3, 65537, 39, 3, 65537, 40, 3, 65537, 41, 3, 65537, 42, 3, 65537, 43, 3, 65537, 44, 3, 65537, 45, 3, 65538, 46, 1, 65536, 47, 1, 65537, 48, 1, 65537, 49, 1, 65537, 50, 1, 65538, 131066, 1, 65536, 131067, 1, 65537, 131068, 1, 65537, 131069, 1, 65537, 131070, 1, 65537, 131071, 1, 65537, 65536, 1, 65538, 65537, 8, 65536, 65538, 1, 131072, 65539, 1, 4, 65540, 1, 65537, 65541, 1, 3, 65542, 1, 131073, 65543, 1, 131073, 65544, 1, 131073, 65545, 1, 131073, 65546, 1, 131073, 65547, 1, 131073, 65548, 1, 131073, 65549, 1, 4, 65550, 1, 65537, 65551, 1, 65537, 65552, 1, 65537, 65553, 1, 65537, 65554, 1, 65537, 65555, 1, 65537, 65556, 1, 65537, 65557, 1, 65537, 65558, 1, 65537, 65559, 1, 65537, 65560, 1, 65537, 65561, 1, 65537, 65562, 1, 65537, 65563, 1, 65537, 65564, 1, 65538, 65565, 8, 65537, 65566, 8, 65538, 65567, 3, 65536, 65568, 3, 65537, 65569, 3, 65537, 65570, 3, 3, 65571, 3, 131073, 65572, 3, 131073, 65573, 3, 131073, 65574, 3, 131073, 65575, 3, 131073, 65576, 3, 131073, 65577, 3, 131073, 65578, 3, 131073, 65579, 3, 4, 65580, 3, 65537, 65581, 3, 65538, 65582, 1, 65536, 65583, 1, 65537, 65584, 1, 65537, 65585, 1, 65537, 65586, 1, 65538, 196602, 1, 65536, 196603, 1, 65537, 196604, 1, 65537, 196605, 1, 65537, 196606, 1, 65537, 196607, 1, 65537, 131072, 1, 65539, 131073, 1, 2, 131074, 8, 65536, 131075, 1, 131072, 131076, 1, 131073, 131077, 1, 131074, 131085, 1, 131072, 131086, 1, 131073, 131087, 1, 131073, 131088, 1, 131073, 131089, 1, 131073, 131090, 1, 131073, 131091, 1, 131073, 131092, 1, 131073, 131093, 1, 131073, 131094, 1, 131073, 131095, 1, 131073, 131096, 1, 131073, 131097, 1, 131073, 131098, 1, 4, 131099, 1, 65537, 131100, 1, 65538, 131101, 8, 131073, 131102, 8, 131074, 131103, 3, 131072, 131104, 3, 4, 131105, 3, 3, 131106, 3, 131074, 131115, 3, 65536, 131116, 3, 65537, 131117, 3, 65538, 131118, 1, 65536, 131119, 1, 65537, 131120, 1, 65537, 131121, 1, 65537, 131122, 1, 65538, 262138, 1, 65536, 262139, 1, 65537, 262140, 1, 65537, 262141, 1, 65537, 262142, 1, 65537, 262143, 1, 65537, 196608, 1, 65537, 196609, 1, 65539, 196610, 1, 2, 196611, 8, 65537, 196612, 8, 65538, 196634, 1, 65536, 196635, 1, 65537, 196636, 1, 65539, 196637, 1, 1, 196638, 1, 2, 196639, 8, 65536, 196640, 3, 131072, 196641, 3, 131074, 196651, 3, 65536, 196652, 3, 65537, 196653, 3, 65538, 196654, 1, 65536, 196655, 1, 65537, 196656, 1, 65537, 196657, 1, 65537, 196658, 1, 65538, 327674, 1, 65536, 327675, 1, 65537, 327676, 1, 65537, 327677, 1, 65537, 327678, 1, 65537, 327679, 1, 65537, 262144, 1, 65537, 262145, 1, 65537, 262146, 1, 65538, 262147, 8, 131073, 262148, 8, 131074, 262170, 1, 131072, 262171, 1, 131073, 262172, 1, 4, 262173, 1, 65537, 262174, 1, 65539, 262175, 1, 2, 262176, 8, 65537, 262177, 8, 65538, 262182, 7, 0, 262183, 7, 2, 262187, 3, 65536, 262188, 3, 65537, 262189, 3, 65538, 262190, 1, 65536, 262191, 1, 65537, 262192, 1, 65537, 262193, 1, 65537, 262194, 1, 65538, 393210, 1, 65536, 393211, 1, 65537, 393212, 1, 65537, 393213, 1, 65537, 393214, 1, 65537, 393215, 1, 65537, 327680, 1, 65537, 327681, 1, 65537, 327682, 1, 65538, 327700, 5, 0, 327701, 5, 2, 327708, 1, 131072, 327709, 1, 131073, 327710, 1, 131073, 327711, 1, 131074, 327712, 8, 131073, 327713, 8, 131074, 327714, 7, 65536, 327715, 8, 0, 327716, 8, 1, 327717, 8, 1, 327718, 8, 1, 327719, 8, 2, 327723, 3, 65536, 327724, 3, 65537, 327725, 3, 65538, 327726, 1, 65536, 327727, 1, 65537, 327728, 1, 65537, 327729, 1, 65537, 327730, 1, 65538, 458746, 1, 65536, 458747, 1, 65537, 458748, 1, 65537, 458749, 1, 65537, 458750, 1, 65537, 458751, 1, 65537, 393216, 1, 65537, 393217, 1, 65537, 393218, 1, 65538, 393236, 5, 65536, 393237, 5, 65538, 393258, 7, 3, 393259, 3, 65536, 393260, 3, 65537, 393261, 3, 65538, 393262, 1, 65536, 393263, 1, 65537, 393264, 1, 65537, 393265, 1, 65537, 393266, 1, 65538, 524282, 1, 65536, 524283, 1, 65537, 524284, 1, 65537, 524285, 1, 65537, 524286, 1, 65537, 524287, 1, 65537, 458752, 1, 65537, 458753, 1, 65537, 458754, 1, 65538, 458768, 5, 0, 458769, 5, 2, 458772, 5, 65536, 458773, 5, 65539, 458774, 5, 2, 458794, 7, 65539, 458795, 3, 65536, 458796, 3, 65537, 458797, 3, 65538, 458798, 1, 65536, 458799, 1, 65537, 458800, 1, 65537, 458801, 1, 65537, 458802, 1, 65538, 589818, 1, 65536, 589819, 1, 65537, 589820, 1, 65537, 589821, 1, 65537, 589822, 1, 65537, 589823, 1, 65537, 524288, 1, 65537, 524289, 1, 65537, 524290, 1, 65538, 524299, 5, 0, 524300, 5, 2, 524304, 5, 65536, 524305, 5, 65538, 524308, 5, 131072, 524309, 5, 4, 524310, 5, 65538, 524317, 13, 65537, 524318, 13, 65538, 524319, 1, 0, 524320, 1, 1, 524321, 1, 1, 524322, 1, 2, 524323, 8, 0, 524324, 8, 1, 524325, 8, 1, 524326, 8, 1, 524327, 8, 2, 524330, 7, 65539, 524331, 3, 65536, 524332, 3, 65537, 524333, 3, 65538, 524334, 1, 65536, 524335, 1, 65537, 524336, 1, 65537, 524337, 1, 65537, 524338, 1, 65538, 655354, 1, 65536, 655355, 1, 65537, 655356, 1, 65537, 655357, 1, 65537, 655358, 1, 65537, 655359, 1, 65537, 589824, 1, 65537, 589825, 1, 65537, 589826, 1, 65538, 589835, 5, 65536, 589836, 5, 65538, 589839, 5, 0, 589840, 5, 65540, 589841, 5, 65538, 589845, 5, 65536, 589846, 5, 65538, 589853, 13, 131073, 589854, 13, 131074, 589855, 1, 131072, 589856, 1, 131073, 589857, 1, 4, 589858, 1, 65538, 589866, 7, 131075, 589867, 3, 65536, 589868, 3, 65537, 589869, 3, 65538, 589870, 1, 65536, 589871, 1, 65537, 589872, 1, 65537, 589873, 1, 65537, 589874, 1, 65538, 720890, 1, 65536, 720891, 1, 65537, 720892, 1, 65537, 720893, 1, 65537, 720894, 1, 65537, 720895, 1, 65537, 655360, 1, 65537, 655361, 1, 65537, 655362, 1, 65538, 655371, 5, 65536, 655372, 5, 65538, 655375, 5, 65536, 655376, 5, 65537, 655377, 5, 65538, 655381, 5, 65536, 655382, 5, 65538, 655389, 1, 0, 655390, 1, 2, 655391, 13, 65537, 655392, 13, 65538, 655393, 1, 65536, 655394, 1, 65538, 655402, 3, 0, 655403, 3, 65540, 655404, 3, 65537, 655405, 3, 65538, 655406, 1, 65536, 655407, 1, 65537, 655408, 1, 65537, 655409, 1, 65537, 655410, 1, 65538, 786426, 1, 65536, 786427, 1, 65537, 786428, 1, 65537, 786429, 1, 65537, 786430, 1, 65537, 786431, 1, 65537, 720896, 1, 65537, 720897, 1, 65537, 720898, 1, 65538, 720907, 5, 65536, 720908, 5, 65539, 720909, 5, 1, 720910, 5, 1, 720911, 5, 65540, 720912, 5, 65537, 720913, 5, 65538, 720917, 5, 65536, 720918, 5, 65539, 720919, 5, 2, 720925, 1, 65536, 720926, 1, 65538, 720927, 13, 131073, 720928, 13, 131074, 720929, 1, 131072, 720930, 1, 131074, 720931, 3, 0, 720932, 3, 2, 720936, 3, 0, 720937, 3, 1, 720938, 3, 65540, 720939, 3, 65537, 720940, 3, 65537, 720941, 3, 65538, 720942, 1, 65536, 720943, 1, 65537, 720944, 1, 65537, 720945, 1, 65537, 720946, 1, 65538, 851962, 1, 65536, 851963, 1, 65537, 851964, 1, 65537, 851965, 1, 65537, 851966, 1, 65537, 851967, 1, 65537, 786432, 1, 65537, 786433, 1, 65537, 786434, 1, 65538, 786443, 5, 65536, 786444, 5, 65537, 786445, 5, 3, 786446, 5, 131073, 786447, 5, 131073, 786448, 5, 4, 786449, 5, 65538, 786452, 5, 0, 786453, 5, 65540, 786454, 5, 65537, 786455, 5, 65538, 786461, 1, 65536, 786462, 1, 65539, 786463, 1, 1, 786464, 1, 2, 786465, 13, 65537, 786466, 13, 65538, 786467, 3, 65536, 786468, 3, 65538, 786472, 3, 65536, 786473, 3, 65537, 786474, 3, 65537, 786475, 3, 65537, 786476, 3, 65537, 786477, 3, 65538, 786478, 1, 65536, 786479, 1, 65537, 786480, 1, 65537, 786481, 1, 65537, 786482, 1, 65538, 917498, 1, 65536, 917499, 1, 65537, 917500, 1, 65537, 917501, 1, 65537, 917502, 1, 65537, 917503, 1, 65537, 851968, 1, 65537, 851969, 1, 65537, 851970, 1, 65538, 851978, 5, 0, 851979, 5, 65540, 851980, 5, 65537, 851981, 5, 65538, 851982, 6, 65537, 851983, 6, 65538, 851984, 5, 65536, 851985, 5, 65538, 851988, 5, 65536, 851989, 5, 3, 851990, 5, 131073, 851991, 5, 131074, 851997, 1, 131072, 851998, 1, 131073, 851999, 1, 131073, 852000, 1, 131074, 852001, 13, 131073, 852002, 13, 131074, 852003, 3, 131072, 852004, 3, 131074, 852008, 3, 131072, 852009, 3, 131073, 852010, 3, 131073, 852011, 3, 131073, 852012, 3, 131073, 852013, 3, 131074, 852014, 1, 65536, 852015, 1, 65537, 852016, 1, 65537, 852017, 1, 65537, 852018, 1, 65538, 983034, 1, 65536, 983035, 1, 65537, 983036, 1, 65537, 983037, 1, 65537, 983038, 1, 65537, 983039, 1, 65537, 917504, 1, 65537, 917505, 1, 65537, 917506, 1, 65539, 917507, 1, 1, 917508, 1, 1, 917509, 1, 2, 917512, 7, 65537, 917513, 7, 65538, 917514, 5, 131072, 917515, 5, 131073, 917516, 5, 131073, 917517, 5, 131074, 917518, 6, 131073, 917519, 6, 131074, 917520, 5, 65536, 917521, 5, 65539, 917522, 5, 1, 917523, 5, 1, 917524, 5, 65540, 917525, 5, 65538, 917526, 6, 65537, 917527, 6, 65538, 917548, 1, 0, 917549, 1, 1, 917550, 1, 65540, 917551, 1, 65537, 917552, 1, 65537, 917553, 1, 65537, 917554, 1, 65538, 1048570, 1, 65536, 1048571, 1, 65537, 1048572, 1, 65537, 1048573, 1, 65537, 1048574, 1, 65537, 1048575, 1, 65537, 983040, 1, 3, 983041, 1, 131073, 983042, 1, 131073, 983043, 1, 4, 983044, 1, 65537, 983045, 1, 65538, 983048, 7, 131073, 983049, 7, 131074, 983050, 6, 65537, 983051, 6, 65538, 983052, 1, 0, 983053, 1, 1, 983054, 1, 1, 983055, 1, 2, 983056, 5, 65536, 983057, 5, 3, 983058, 5, 131073, 983059, 5, 131073, 983060, 5, 131073, 983061, 5, 131074, 983062, 6, 131073, 983063, 6, 131074, 983084, 1, 65536, 983085, 1, 65537, 983086, 1, 65537, 983087, 1, 65537, 983088, 1, 65537, 983089, 1, 65537, 983090, 1, 65538, 1114106, 1, 65536, 1114107, 1, 65537, 1114108, 1, 65537, 1114109, 1, 65537, 1114110, 1, 65537, 1114111, 1, 65537, 1048576, 1, 65538, 1048577, 13, 65537, 1048578, 13, 65538, 1048579, 1, 65536, 1048580, 1, 65537, 1048581, 1, 65538, 1048584, 1, 0, 1048585, 1, 2, 1048586, 6, 131073, 1048587, 6, 131074, 1048588, 1, 65536, 1048589, 1, 65537, 1048590, 1, 65537, 1048591, 1, 65538, 1048592, 5, 131072, 1048593, 5, 131074, 1048594, 6, 3, 1048595, 1, 0, 1048596, 1, 1, 1048597, 1, 1, 1048598, 1, 1, 1048599, 1, 2, 1048606, 6, 3, 1048620, 1, 65536, 1048621, 1, 65537, 1048622, 1, 65537, 1048623, 1, 65537, 1048624, 1, 65537, 1048625, 1, 65537, 1048626, 1, 65538, 1179642, 1, 65536, 1179643, 1, 65537, 1179644, 1, 65537, 1179645, 1, 65537, 1179646, 1, 65537, 1179647, 1, 65537, 1114112, 1, 65538, 1114113, 13, 131073, 1114114, 13, 131074, 1114115, 1, 65536, 1114116, 1, 65537, 1114117, 1, 65538, 1114120, 1, 65536, 1114121, 1, 65539, 1114122, 1, 1, 1114123, 1, 1, 1114124, 1, 65540, 1114125, 1, 65537, 1114126, 1, 65537, 1114127, 1, 65539, 1114128, 1, 1, 1114129, 1, 2, 1114130, 6, 65539, 1114131, 1, 131072, 1114132, 1, 131073, 1114133, 1, 131073, 1114134, 1, 131073, 1114135, 1, 131074, 1114140, 1, 0, 1114141, 1, 2, 1114142, 6, 65539, 1114143, 1, 0, 1114144, 1, 2, 1114147, 13, 65536, 1114148, 0, 0, 1114149, 0, 1, 1114150, 0, 1, 1114151, 0, 1, 1114152, 0, 2, 1114156, 1, 65536, 1114157, 1, 65537, 1114158, 1, 65537, 1114159, 1, 65537, 1114160, 1, 65537, 1114161, 1, 65537, 1114162, 1, 65539, 1114163, 1, 2, 1245178, 1, 65536, 1245179, 1, 65537, 1245180, 1, 65537, 1245181, 1, 65537, 1245182, 1, 65537, 1245183, 1, 65537, 1179648, 1, 65539, 1179649, 1, 1, 1179650, 1, 1, 1179651, 1, 65540, 1179652, 1, 3, 1179653, 1, 131074, 1179656, 1, 131072, 1179657, 1, 131073, 1179658, 1, 131073, 1179659, 1, 131073, 1179660, 1, 131073, 1179661, 1, 131073, 1179662, 1, 131073, 1179663, 1, 131073, 1179664, 1, 131073, 1179665, 1, 131074, 1179666, 6, 65539, 1179676, 1, 65536, 1179677, 1, 65538, 1179678, 6, 65539, 1179679, 1, 65536, 1179680, 1, 65538, 1179683, 6, 65536, 1179684, 0, 65536, 1179685, 0, 65537, 1179686, 0, 65537, 1179687, 0, 3, 1179688, 0, 131074, 1179692, 1, 65536, 1179693, 1, 65537, 1179694, 1, 65537, 1179695, 1, 65537, 1179696, 1, 65537, 1179697, 1, 65537, 1179698, 1, 65537, 1179699, 1, 65538, 1310714, 1, 65536, 1310715, 1, 65537, 1310716, 1, 65537, 1310717, 1, 65537, 1310718, 1, 65537, 1310719, 1, 65537, 1245184, 1, 65537, 1245185, 1, 65537, 1245186, 1, 3, 1245187, 1, 131073, 1245188, 1, 131074, 1245202, 6, 131075, 1245212, 1, 65536, 1245213, 1, 65538, 1245214, 6, 131075, 1245215, 1, 65536, 1245216, 1, 65538, 1245219, 13, 3, 1245220, 0, 65536, 1245221, 0, 65537, 1245222, 0, 3, 1245223, 0, 131074, 1245228, 1, 65536, 1245229, 1, 65537, 1245230, 1, 65537, 1245231, 1, 65537, 1245232, 1, 65537, 1245233, 1, 65537, 1245234, 1, 65537, 1245235, 1, 65538, 1376249, 1, 0, 1376250, 1, 65540, 1376251, 1, 65537, 1376252, 1, 65537, 1376253, 1, 65537, 1376254, 1, 65537, 1376255, 1, 65537, 1310720, 1, 65537, 1310721, 1, 65537, 1310722, 1, 65538, 1310746, 6, 65537, 1310747, 6, 65538, 1310748, 1, 65536, 1310749, 1, 65539, 1310750, 1, 1, 1310751, 1, 65540, 1310752, 1, 65538, 1310755, 13, 131075, 1310756, 0, 65536, 1310757, 0, 3, 1310758, 0, 131074, 1310764, 1, 65536, 1310765, 1, 65537, 1310766, 1, 65537, 1310767, 1, 65537, 1310768, 1, 65537, 1310769, 1, 65537, 1310770, 1, 65537, 1310771, 1, 65538, 1441785, 1, 65536, 1441786, 1, 65537, 1441787, 1, 65537, 1441788, 1, 65537, 1441789, 1, 65537, 1441790, 1, 65537, 1441791, 1, 65537, 1376256, 1, 65537, 1376257, 1, 65537, 1376258, 1, 65538, 1376278, 6, 0, 1376279, 6, 1, 1376280, 6, 1, 1376281, 6, 2, 1376282, 6, 131073, 1376283, 6, 131074, 1376284, 1, 131072, 1376285, 1, 131073, 1376286, 1, 4, 1376287, 1, 65537, 1376288, 1, 65538, 1376291, 6, 65536, 1376292, 0, 131072, 1376293, 0, 131074, 1376299, 7, 3, 1376300, 1, 65536, 1376301, 1, 65537, 1376302, 1, 65537, 1376303, 1, 65537, 1376304, 1, 65537, 1376305, 1, 65537, 1376306, 1, 65537, 1376307, 1, 65538, 1507321, 1, 65536, 1507322, 1, 65537, 1507323, 1, 65537, 1507324, 1, 65537, 1507325, 1, 65537, 1507326, 1, 65537, 1507327, 1, 65537, 1441792, 1, 65537, 1441793, 1, 65537, 1441794, 1, 65538, 1441811, 6, 3, 1441817, 1, 0, 1441818, 1, 1, 1441819, 1, 2, 1441820, 6, 65537, 1441821, 6, 65538, 1441822, 1, 65536, 1441823, 1, 65537, 1441824, 1, 65538, 1441827, 13, 0, 1441828, 13, 1, 1441829, 13, 2, 1441835, 7, 131075, 1441836, 1, 65536, 1441837, 1, 65537, 1441838, 1, 65537, 1441839, 1, 65537, 1441840, 1, 65537, 1441841, 1, 65537, 1441842, 1, 3, 1441843, 1, 131074, 1572857, 1, 65536, 1572858, 1, 65537, 1572859, 1, 65537, 1572860, 1, 65537, 1572861, 1, 65537, 1572862, 1, 65537, 1572863, 1, 65537, 1507328, 1, 65537, 1507329, 1, 65537, 1507330, 1, 65538, 1507347, 6, 65539, 1507352, 1, 0, 1507353, 1, 65540, 1507354, 1, 65537, 1507355, 1, 65538, 1507356, 6, 131073, 1507357, 6, 131074, 1507358, 1, 65536, 1507359, 1, 65537, 1507360, 1, 65538, 1507370, 13, 65537, 1507371, 13, 65538, 1507372, 1, 65536, 1507373, 1, 65537, 1507374, 1, 65537, 1507375, 1, 65537, 1507376, 1, 65537, 1507377, 1, 65537, 1507378, 1, 65538, 1638393, 1, 131072, 1638394, 1, 4, 1638395, 1, 65537, 1638396, 1, 65537, 1638397, 1, 65537, 1638398, 1, 65537, 1638399, 1, 65537, 1572864, 1, 65537, 1572865, 1, 65537, 1572866, 1, 65539, 1572867, 1, 1, 1572868, 1, 1, 1572869, 1, 1, 1572870, 1, 1, 1572871, 1, 1, 1572872, 1, 1, 1572873, 1, 1, 1572874, 1, 1, 1572875, 1, 1, 1572876, 1, 1, 1572877, 1, 1, 1572878, 1, 1, 1572879, 1, 2, 1572883, 6, 65539, 1572884, 1, 0, 1572885, 1, 1, 1572886, 1, 1, 1572887, 1, 1, 1572888, 1, 65540, 1572889, 1, 65537, 1572890, 1, 65537, 1572891, 1, 65539, 1572892, 1, 1, 1572893, 1, 1, 1572894, 1, 65540, 1572895, 1, 65537, 1572896, 1, 65538, 1572904, 7, 0, 1572905, 7, 2, 1572906, 13, 131073, 1572907, 13, 131074, 1572908, 1, 65536, 1572909, 1, 65537, 1572910, 1, 65537, 1572911, 1, 65537, 1572912, 1, 65537, 1572913, 1, 65537, 1572914, 1, 65538, 1703930, 1, 65536, 1703931, 1, 65537, 1703932, 1, 65537, 1703933, 1, 65537, 1703934, 1, 65537, 1703935, 1, 65537, 1638400, 1, 65537, 1638401, 1, 65537, 1638402, 1, 65537, 1638403, 1, 65537, 1638404, 1, 65537, 1638405, 1, 65537, 1638406, 1, 65537, 1638407, 1, 65537, 1638408, 1, 65537, 1638409, 1, 65537, 1638410, 1, 65537, 1638411, 1, 65537, 1638412, 1, 65537, 1638413, 1, 65537, 1638414, 1, 65537, 1638415, 1, 65539, 1638416, 1, 1, 1638417, 1, 1, 1638418, 1, 2, 1638419, 6, 65539, 1638420, 1, 65536, 1638421, 1, 65537, 1638422, 1, 65537, 1638423, 1, 65537, 1638424, 1, 65537, 1638425, 1, 65537, 1638426, 1, 65537, 1638427, 1, 65537, 1638428, 1, 65537, 1638429, 1, 65537, 1638430, 1, 65537, 1638431, 1, 65537, 1638432, 1, 65539, 1638433, 1, 1, 1638434, 1, 1, 1638435, 1, 1, 1638436, 1, 1, 1638437, 1, 1, 1638438, 1, 1, 1638439, 1, 1, 1638440, 1, 1, 1638441, 1, 1, 1638442, 1, 1, 1638443, 1, 1, 1638444, 1, 65540, 1638445, 1, 65537, 1638446, 1, 65537, 1638447, 1, 65537, 1638448, 1, 65537, 1638449, 1, 65537, 1638450, 1, 65538, 1769466, 1, 65536, 1769467, 1, 65537, 1769468, 1, 65537, 1769469, 1, 65537, 1769470, 1, 65537, 1769471, 1, 65537, 1703936, 1, 65537, 1703937, 1, 65537, 1703938, 1, 65537, 1703939, 1, 65537, 1703940, 1, 65537, 1703941, 1, 65537, 1703942, 1, 65537, 1703943, 1, 65537, 1703944, 1, 65537, 1703945, 1, 65537, 1703946, 1, 65537, 1703947, 1, 65537, 1703948, 1, 65537, 1703949, 1, 65537, 1703950, 1, 65537, 1703951, 1, 65537, 1703952, 1, 65537, 1703953, 1, 65537, 1703954, 1, 65538, 1703955, 6, 65539, 1703956, 1, 65536, 1703957, 1, 65537, 1703958, 1, 65537, 1703959, 1, 65537, 1703960, 1, 65537, 1703961, 1, 65537, 1703962, 1, 65537, 1703963, 1, 65537, 1703964, 1, 65537, 1703965, 1, 65537, 1703966, 1, 65537, 1703967, 1, 65537, 1703968, 1, 65537, 1703969, 1, 65537, 1703970, 1, 65537, 1703971, 1, 65537, 1703972, 1, 65537, 1703973, 1, 65537, 1703974, 1, 65537, 1703975, 1, 65537, 1703976, 1, 65537, 1703977, 1, 65537, 1703978, 1, 65537, 1703979, 1, 65537, 1703980, 1, 65537, 1703981, 1, 65537, 1703982, 1, 65537, 1703983, 1, 65537, 1703984, 1, 65537, 1703985, 1, 65537, 1703986, 1, 65538, 1835002, 1, 65536, 1835003, 1, 65537, 1835004, 1, 65537, 1835005, 1, 65537, 1835006, 1, 65537, 1835007, 1, 65537, 1769472, 1, 65537, 1769473, 1, 65537, 1769474, 1, 65537, 1769475, 1, 65537, 1769476, 1, 65537, 1769477, 1, 65537, 1769478, 1, 65537, 1769479, 1, 65537, 1769480, 1, 65537, 1769481, 1, 65537, 1769482, 1, 65537, 1769483, 1, 65537, 1769484, 1, 65537, 1769485, 1, 65537, 1769486, 1, 65537, 1769487, 1, 65537, 1769488, 1, 65537, 1769489, 1, 65537, 1769490, 1, 65538, 1769491, 6, 131075, 1769492, 1, 65536, 1769493, 1, 65537, 1769494, 1, 65537, 1769495, 1, 65537, 1769496, 1, 65537, 1769497, 1, 65537, 1769498, 1, 65537, 1769499, 1, 65537, 1769500, 1, 65537, 1769501, 1, 65537, 1769502, 1, 65537, 1769503, 1, 65537, 1769504, 1, 65537, 1769505, 1, 65537, 1769506, 1, 65537, 1769507, 1, 65537, 1769508, 1, 65537, 1769509, 1, 65537, 1769510, 1, 65537, 1769511, 1, 65537, 1769512, 1, 65537, 1769513, 1, 65537, 1769514, 1, 65537, 1769515, 1, 65537, 1769516, 1, 65537, 1769517, 1, 65537, 1769518, 1, 65537, 1769519, 1, 65537, 1769520, 1, 65537, 1769521, 1, 65537, 1769522, 1, 65538, 1900538, 1, 65536, 1900539, 1, 65537, 1900540, 1, 65537, 1900541, 1, 65537, 1900542, 1, 65537, 1900543, 1, 65537, 1835008, 1, 65537, 1835009, 1, 65537, 1835010, 1, 65537, 1835011, 1, 65537, 1835012, 1, 65537, 1835013, 1, 65537, 1835014, 1, 65537, 1835015, 1, 65537, 1835016, 1, 65537, 1835017, 1, 65537, 1835018, 1, 65537, 1835019, 1, 65537, 1835020, 1, 65537, 1835021, 1, 65537, 1835022, 1, 65537, 1835023, 1, 65537, 1835024, 1, 65537, 1835025, 1, 65537, 1835026, 1, 65539, 1835027, 1, 1, 1835028, 1, 65540, 1835029, 1, 65537, 1835030, 1, 65537, 1835031, 1, 65537, 1835032, 1, 65537, 1835033, 1, 65537, 1835034, 1, 65537, 1835035, 1, 65537, 1835036, 1, 65537, 1835037, 1, 65537, 1835038, 1, 65537, 1835039, 1, 65537, 1835040, 1, 65537, 1835041, 1, 65537, 1835042, 1, 65537, 1835043, 1, 65537, 1835044, 1, 65537, 1835045, 1, 65537, 1835046, 1, 65537, 1835047, 1, 65537, 1835048, 1, 65537, 1835049, 1, 65537, 1835050, 1, 65537, 1835051, 1, 65537, 1835052, 1, 65537, 1835053, 1, 65537, 1835054, 1, 65537, 1835055, 1, 65537, 1835056, 1, 65537, 1835057, 1, 65537, 1835058, 1, 65538, 1966074, 1, 65536, 1966075, 1, 65537, 1966076, 1, 65537, 1966077, 1, 65537, 1966078, 1, 65537, 1966079, 1, 65537, 1900544, 1, 65537, 1900545, 1, 65537, 1900546, 1, 65537, 1900547, 1, 65537, 1900548, 1, 65537, 1900549, 1, 65537, 1900550, 1, 65537, 1900551, 1, 65537, 1900552, 1, 65537, 1900553, 1, 65537, 1900554, 1, 65537, 1900555, 1, 65537, 1900556, 1, 65537, 1900557, 1, 65537, 1900558, 1, 65537, 1900559, 1, 65537, 1900560, 1, 65537, 1900561, 1, 65537, 1900562, 1, 65537, 1900563, 1, 65537, 1900564, 1, 65537, 1900565, 1, 65537, 1900566, 1, 65537, 1900567, 1, 65537, 1900568, 1, 65537, 1900569, 1, 65537, 1900570, 1, 65537, 1900571, 1, 65537, 1900572, 1, 65537, 1900573, 1, 65537, 1900574, 1, 65537, 1900575, 1, 65537, 1900576, 1, 65537, 1900577, 1, 65537, 1900578, 1, 65537, 1900579, 1, 65537, 1900580, 1, 65537, 1900581, 1, 65537, 1900582, 1, 65537, 1900583, 1, 65537, 1900584, 1, 65537, 1900585, 1, 65537, 1900586, 1, 65537, 1900587, 1, 65537, 1900588, 1, 65537, 1900589, 1, 65537, 1900590, 1, 65537, 1900591, 1, 65537, 1900592, 1, 65537, 1900593, 1, 65537, 1900594, 1, 65538, 2031610, 1, 65536, 2031611, 1, 65537, 2031612, 1, 65537, 2031613, 1, 65537, 2031614, 1, 65537, 2031615, 1, 65537, 1966080, 1, 65537, 1966081, 1, 65537, 1966082, 1, 65537, 1966083, 1, 65537, 1966084, 1, 65537, 1966085, 1, 65537, 1966086, 1, 65537, 1966087, 1, 65537, 1966088, 1, 65537, 1966089, 1, 65537, 1966090, 1, 65537, 1966091, 1, 65537, 1966092, 1, 65537, 1966093, 1, 65537, 1966094, 1, 65537, 1966095, 1, 65537, 1966096, 1, 65537, 1966097, 1, 65537, 1966098, 1, 65537, 1966099, 1, 65537, 1966100, 1, 65537, 1966101, 1, 65537, 1966102, 1, 65537, 1966103, 1, 65537, 1966104, 1, 65537, 1966105, 1, 65537, 1966106, 1, 65537, 1966107, 1, 65537, 1966108, 1, 65537, 1966109, 1, 65537, 1966110, 1, 65537, 1966111, 1, 65537, 1966112, 1, 65537, 1966113, 1, 65537, 1966114, 1, 65537, 1966115, 1, 65537, 1966116, 1, 65537, 1966117, 1, 65537, 1966118, 1, 65537, 1966119, 1, 65537, 1966120, 1, 65537, 1966121, 1, 65537, 1966122, 1, 65537, 1966123, 1, 65537, 1966124, 1, 65537, 1966125, 1, 65537, 1966126, 1, 65537, 1966127, 1, 65537, 1966128, 1, 65537, 1966129, 1, 65537, 1966130, 1, 65538, 2097146, 1, 131072, 2097147, 1, 131073, 2097148, 1, 131073, 2097149, 1, 131073, 2097150, 1, 131073, 2097151, 1, 131073, 2031616, 1, 131073, 2031617, 1, 131073, 2031618, 1, 131073, 2031619, 1, 131073, 2031620, 1, 131073, 2031621, 1, 131073, 2031622, 1, 131073, 2031623, 1, 131073, 2031624, 1, 131073, 2031625, 1, 131073, 2031626, 1, 131073, 2031627, 1, 131073, 2031628, 1, 131073, 2031629, 1, 131073, 2031630, 1, 131073, 2031631, 1, 131073, 2031632, 1, 131073, 2031633, 1, 131073, 2031634, 1, 131073, 2031635, 1, 131073, 2031636, 1, 131073, 2031637, 1, 131073, 2031638, 1, 131073, 2031639, 1, 131073, 2031640, 1, 131073, 2031641, 1, 131073, 2031642, 1, 131073, 2031643, 1, 131073, 2031644, 1, 131073, 2031645, 1, 4, 2031646, 1, 65537, 2031647, 1, 3, 2031648, 1, 131073, 2031649, 1, 131073, 2031650, 1, 131073, 2031651, 1, 131073, 2031652, 1, 131073, 2031653, 1, 131073, 2031654, 1, 131073, 2031655, 1, 131073, 2031656, 1, 131073, 2031657, 1, 131073, 2031658, 1, 131073, 2031659, 1, 131073, 2031660, 1, 131073, 2031661, 1, 131073, 2031662, 1, 131073, 2031663, 1, 131073, 2031664, 1, 131073, 2031665, 1, 131073, 2031666, 1, 131074, 2097181, 1, 131072, 2097182, 1, 131073, 2097183, 1, 131074 )

[node name="Personaje" parent="." groups=[
"player",
] instance=ExtResource( 5 )]
position = Vector2( 66.018, 204.913 )
modif_gravedad = 0.43
fuerza_salto = 565

[node name="Frutas" type="Node2D" parent="."]
editor/display_folded = true
z_index = 10
script = ExtResource( 6 )

[node name="F1" type="Position2D" parent="Frutas"]
position = Vector2( 160.737, 178.571 )

[node name="F2" type="Position2D" parent="Frutas"]
position = Vector2( 304, 208 )

[node name="F3" type="Position2D" parent="Frutas"]
position = Vector2( 72, 352 )

[node name="F4" type="Position2D" parent="Frutas"]
position = Vector2( 544, 320 )

[node name="F5" type="Position2D" parent="Frutas"]
position = Vector2( 488, 112 )

[node name="F6" type="Position2D" parent="Frutas"]
position = Vector2( 563.91, 62.2738 )

[node name="F7" type="Position2D" parent="Frutas"]
position = Vector2( 401.454, 232 )

[node name="F8" type="Position2D" parent="Frutas"]
position = Vector2( 96, 64 )

[node name="F9" type="Position2D" parent="Frutas"]
position = Vector2( 575.703, 160.857 )

[node name="F10" type="Position2D" parent="Frutas"]
position = Vector2( 279.12, 385.32 )

[node name="F11" type="Position2D" parent="Frutas"]
position = Vector2( 648.078, 327.793 )

[node name="F12" type="Position2D" parent="Frutas"]
position = Vector2( 687.922, 240.44 )

[node name="F13" type="Position2D" parent="Frutas"]
position = Vector2( 369.058, 368.029 )

[node name="F14" type="Position2D" parent="Frutas"]
position = Vector2( 401.385, 60.5705 )

[node name="F15" type="Position2D" parent="Frutas"]
position = Vector2( 112.316, 265.76 )

[node name="F16" type="Position2D" parent="Frutas"]
position = Vector2( 224, 160 )

[node name="Camera2D" type="Camera2D" parent="."]
position = Vector2( 361.001, 208.05 )
current = true
zoom = Vector2( 0.7, 0.7 )
drag_margin_h_enabled = false
drag_margin_v_enabled = false

[node name="HUD" parent="." instance=ExtResource( 7 )]
help_delay = 6.5
cuenta_reg_delay = 0.89

[node name="AudioStreamPlayer2D" type="AudioStreamPlayer2D" parent="."]
position = Vector2( 366.522, 239.588 )
stream = ExtResource( 8 )
autoplay = true
[connection signal="sin_frutas" from="Frutas" to="." method="_on_Frutas_sin_frutas"]
[connection signal="btmenu_presionado" from="HUD" to="." method="_on_HUD_btmenu_presionado"]
[connection signal="empezar" from="HUD" to="." method="_on_HUD_empezar"]
[connection signal="tiempofuera" from="HUD" to="." method="_on_HUD_tiempofuera" flags=6]
