[gd_resource type="Animation" format=2]

[resource]
resource_name = "ShowMenu"
tracks/0/type = "value"
tracks/0/path = NodePath("Splash text:position")
tracks/0/interp = 1
tracks/0/loop_wrap = true
tracks/0/imported = false
tracks/0/enabled = true
tracks/0/keys = {
"times": PoolRealArray( 1 ),
"transitions": PoolRealArray( 1 ),
"update": 3,
"values": [ Vector2( 512.947, 159.871 ) ]
}
tracks/1/type = "value"
tracks/1/path = NodePath("Splash text:scale")
tracks/1/interp = 1
tracks/1/loop_wrap = true
tracks/1/imported = false
tracks/1/enabled = true
tracks/1/keys = {
"times": PoolRealArray( 1 ),
"transitions": PoolRealArray( 1 ),
"update": 3,
"values": [ Vector2( 0.998042, 1.22974 ) ]
}
tracks/2/type = "value"
tracks/2/path = NodePath("Splash text:modulate")
tracks/2/interp = 1
tracks/2/loop_wrap = true
tracks/2/imported = false
tracks/2/enabled = true
tracks/2/keys = {
"times": PoolRealArray( 1 ),
"transitions": PoolRealArray( 1 ),
"update": 3,
"values": [ Color( 1, 1, 1, 1 ) ]
}
tracks/3/type = "value"
tracks/3/path = NodePath("TabContainer:rect_position")
tracks/3/interp = 1
tracks/3/loop_wrap = true
tracks/3/imported = false
tracks/3/enabled = true
tracks/3/keys = {
"times": PoolRealArray( 0, 0.8, 1 ),
"transitions": PoolRealArray( 1, 1, 1 ),
"update": 0,
"values": [ Vector2( 372.849, 800 ), Vector2( 336, 296.451 ), Vector2( 372.849, 367.949 ) ]
}
tracks/4/type = "value"
tracks/4/path = NodePath("TabContainer:rect_size")
tracks/4/interp = 1
tracks/4/loop_wrap = true
tracks/4/imported = false
tracks/4/enabled = true
tracks/4/keys = {
"times": PoolRealArray( 0.8, 1 ),
"transitions": PoolRealArray( 1, 1 ),
"update": 3,
"values": [ Vector2( 362, 260 ), Vector2( 288, 207 ) ]
}
tracks/5/type = "value"
tracks/5/path = NodePath("Label:rect_position")
tracks/5/interp = 1
tracks/5/loop_wrap = true
tracks/5/imported = false
tracks/5/enabled = true
tracks/5/keys = {
"times": PoolRealArray( 0, 1 ),
"transitions": PoolRealArray( 1, 1 ),
"update": 0,
"values": [ Vector2( 1065.82, 582.579 ), Vector2( 747.726, 582.579 ) ]
}
